Incident Types Level 1,Incident Types Level 2,Incident Types Level 3,Incident Types Level 4,Incident Types Level 5,Owner,Description
Access,Data Backup & Recovery,,,,SystemAdmin Team,
Access,Email,Request shared email account,,,SystemAdmin Team,
Access,email,User cannot authenticate email account,,,SystemAdmin Team,
Access,email,User missing email account,,,SystemAdmin Team,
Access,LDAP/AD Accounts,Create Contractor Account,,,SystemAdmin Team,
Access,LDAP/AD Accounts,Create User Account,,,ServiceDesk Team,
Access,LDAP/AD Accounts,error in user name,,,AppDev Team,
Access,LDAP/AD Accounts,Inactive User Account,,,ServiceDesk Team,
Access,LDAP/AD Accounts,Modify User,,,ServiceDesk Team,
Access,LDAP/AD Accounts,Move OU,,,ServiceDesk Team,
Access,LDAP/AD Accounts,Request User Name Change,,,ServiceDesk Team,
Access,LDAP/AD Accounts,Student ID Number Change,,,AppDev Team,
Access,LDAP/AD Accounts,User Account Missing,,,ServiceDesk Team,
Access,PasswordManager,Password Reset,,,No Owner,
Access,Printing,User not able to print,,,ServiceDesk Team,
Access,Reporting,Request for Data,,,SIS Team,
Access,Reporting,Request for existing report,,,SIS Team,
Access,Request Training,,,,ServiceDesk Team,
Access,Schoology,,,,Instructional Technology Leadership Team,
Access,Supported Services,Payroll Login Issues,,,DSS Finance Team,
Access,Supported Services,Service Not Listed,,,ServiceDesk Team,
Hardware,Classroom Hardware,Assistive Learning Hardware,,,Assistive Technology Team,
Hardware,Classroom Hardware,AV Hardware,,,PC Repair Team,
Hardware,Classroom Hardware,Carts,,,PC Repair Team,
Hardware,Classroom Hardware,Classroom/Lab devices,,,PC Repair Team,
Hardware,Classroom Hardware,LCD Projectors,,,PC Repair Team,
Hardware,Classroom Hardware,Library Computers,,,PC Repair Team,
Hardware,Classroom Hardware,Smart Board Hardware,,,PC Repair Team,
Hardware,Internal Technician Ticket,,,,No Owner,
Hardware,Laptop,Docking Stations,,,Support Services Team,
Hardware,Network Infrastructure and Servers,Backend Hardware,,,Netadmin Team,"Physical issues with servers, switches, etc."
Hardware,Network Infrastructure and Servers,Ethernet Issues,,,Netadmin Team,
Hardware,Network Infrastructure and Servers,New/Change Port,,,Netadmin Team,
Hardware,Network Infrastructure and Servers,Servers,,,SystemAdmin Team,
Hardware,Network Infrastructure and Servers,UPS Issues,,,Netadmin Team,
Hardware,Network Infrastructure and Servers,Wi-Fi Issues,,,Netadmin Team,
Hardware,Printing,Classroom Printer,,,PC Repair Team,
Hardware,Printing,Large Volume Copier/Printer,,,PC Repair Team,
Hardware,Printing,Move/Add/Change Printer on Print Server,,,SystemAdmin Team,
Hardware,Smartphone Troubleshooting,,,,SystemAdmin Team,
Hardware,Surplus,Request HD removal,,,PC Repair Team,
Hardware,Surplus,Surplus Request,,,Support Services Team,
Hardware,Tablets,Tablet Repair,,,iPad Repair Team,
Hardware,Tablets,Tablet Repair-At Depot,,,iPad Repair Team,
Hardware,Tablets,Tablet Repair-Audio Jack,,,iPad Repair Team,
Hardware,Tempest (Laptop Inventory),Add device to inventory,,,Support Services Team,
Hardware,Tempest (Laptop Inventory),Change unit or user status,,,Support Services Team,For Lost/Stolen units. Either making them inactive or marking them active when recovered. Covers all unit status changes.
Hardware,Tempest (Laptop Inventory),Inventory Errors,,,Support Services Team,
Hardware,Tempest (Laptop Inventory),Issues Renaming Unit,,,Support Services Team,
Hardware,Tempest (Laptop Inventory),OU issues,,,Support Services Team,
Hardware,Tempest (Laptop Inventory),Remove charger/computer from Inventory,,,Support Services Team,
Pupil Transportation,,,,,Transportation Team,
School Nutrition Services,Mechanical,Health Inspection Citations,,,SNS Team,
School Nutrition Services,Mechanical,Kitchen Equipment,Cook Top,,SNS Team,
School Nutrition Services,Mechanical,Kitchen Equipment,Dish Machine,,SNS Team,
School Nutrition Services,Mechanical,Kitchen Equipment,Dish Machine Booser Heater,,SNS Team,
School Nutrition Services,Mechanical,Kitchen Equipment,Dish Machine Sprayer Hose,,SNS Team,
School Nutrition Services,Mechanical,Kitchen Equipment,Exaust Fan,,SNS Team,
School Nutrition Services,Mechanical,Kitchen Equipment,Fryer,,SNS Team,
School Nutrition Services,Mechanical,Kitchen Equipment,Fryer Filter,,SNS Team,
School Nutrition Services,Mechanical,Kitchen Equipment,Fryer Pasket,,SNS Team,
School Nutrition Services,Mechanical,Kitchen Equipment,Kettle,40 Gallon Tilt,SNS Team,
School Nutrition Services,Mechanical,Kitchen Equipment,Kettle,6 Gallon,SNS Team,
School Nutrition Services,Mechanical,Kitchen Equipment,Kettle,,SNS Team,
School Nutrition Services,Mechanical,Kitchen Equipment,Oven,Combo,SNS Team,
School Nutrition Services,Mechanical,Kitchen Equipment,Oven,Double Stack,SNS Team,
School Nutrition Services,Mechanical,Kitchen Equipment,Oven,Single,SNS Team,
School Nutrition Services,Mechanical,Kitchen Equipment,Oven,,SNS Team,
School Nutrition Services,Mechanical,Kitchen Equipment,Serving Line,Heat Lamps,SNS Team,
School Nutrition Services,Mechanical,Kitchen Equipment,Serving Line,Wells,SNS Team,
School Nutrition Services,Mechanical,Kitchen Equipment,Serving Line,,SNS Team,
School Nutrition Services,Mechanical,Kitchen Equipment,Slicer,Blade,SNS Team,
School Nutrition Services,Mechanical,Kitchen Equipment,Slicer,Knob,SNS Team,
School Nutrition Services,Mechanical,Kitchen Equipment,Slicer,,SNS Team,
School Nutrition Services,Mechanical,Kitchen Equipment,Steamer,Boiler,SNS Team,
School Nutrition Services,Mechanical,Kitchen Equipment,Steamer,Boilerless,SNS Team,
School Nutrition Services,Mechanical,Kitchen Equipment,Steamer,,SNS Team,
School Nutrition Services,Mechanical,Kitchen Equipment,Warmer,,SNS Team,
School Nutrition Services,Mechanical,Kitchen Equipment,Washer/Dryer,,SNS Team,
School Nutrition Services,Mechanical,Kitchen Equipment,,,SNS Team,
School Nutrition Services,Mechanical,Miscellaneous,Can Opener,,SNS Team,
School Nutrition Services,Mechanical,Miscellaneous,Carts,,SNS Team,
School Nutrition Services,Mechanical,Miscellaneous,Light Bulbs,,SNS Team,
School Nutrition Services,Mechanical,Miscellaneous,Locks,,SNS Team,
School Nutrition Services,Mechanical,Miscellaneous,,,SNS Team,
School Nutrition Services,Mechanical,Pest Control,,,SNS Team,
School Nutrition Services,Mechanical,Refrigeration,Freezer,Upright,SNS Team,
School Nutrition Services,Mechanical,Refrigeration,Freezer,Walk-In,SNS Team,
School Nutrition Services,Mechanical,Refrigeration,Freezer,,SNS Team,
School Nutrition Services,Mechanical,Refrigeration,Ice Cream Box,Non-SNS,SNS Team,
School Nutrition Services,Mechanical,Refrigeration,Ice Cream Box,SNS,SNS Team,
School Nutrition Services,Mechanical,Refrigeration,Ice Cream Box,,SNS Team,
School Nutrition Services,Mechanical,Refrigeration,Ice Machine,Leaks Water,SNS Team,
School Nutrition Services,Mechanical,Refrigeration,Ice Machine,No Ice,SNS Team,
School Nutrition Services,Mechanical,Refrigeration,Ice Machine,,SNS Team,
School Nutrition Services,Mechanical,Refrigeration,Milk Cooler,Free Standing,SNS Team,
School Nutrition Services,Mechanical,Refrigeration,Milk Cooler,On Line,SNS Team,
School Nutrition Services,Mechanical,Refrigeration,Milk Cooler,,SNS Team,
School Nutrition Services,Mechanical,Refrigeration,Refrigerator,On-Line,SNS Team,
School Nutrition Services,Mechanical,Refrigeration,Refrigerator,Pass-thru,SNS Team,
School Nutrition Services,Mechanical,Refrigeration,Refrigerator,Upright,SNS Team,
School Nutrition Services,Mechanical,Refrigeration,Refrigerator,Walk-In,SNS Team,
School Nutrition Services,Mechanical,Refrigeration,Refrigerator,,SNS Team,
School Nutrition Services,Mechanical,Refrigeration,,,SNS Team,
School Nutrition Services,Mechanical,Waste Oil Pickup,,,SNS Team,
School Nutrition Services,Mechanical,,,,SNS Team,
School Nutrition Services,Technical (Hardware),Back of House (Managers Machine),Keyboard/Mouse,,SNS Team,
School Nutrition Services,Technical (Hardware),Back of House (Managers Machine),Monitor,,SNS Team,
School Nutrition Services,Technical (Hardware),Back of House (Managers Machine),Other,,SNS Team,
School Nutrition Services,Technical (Hardware),Back of House (Managers Machine),Printer,,SNS Team,
School Nutrition Services,Technical (Hardware),Back of House (Managers Machine),Tower,,SNS Team,
School Nutrition Services,Technical (Hardware),Back of House (Managers Machine),,,SNS Team,
School Nutrition Services,Technical (Hardware),Point Of Sale (Cash Register),Barcode Scanner,,SNS Team,
School Nutrition Services,Technical (Hardware),Point Of Sale (Cash Register),Cash Register,,SNS Team,
School Nutrition Services,Technical (Hardware),Point Of Sale (Cash Register),Numeric Pad,,SNS Team,
School Nutrition Services,Technical (Hardware),Point Of Sale (Cash Register),Other,,SNS Team,
School Nutrition Services,Technical (Hardware),Point Of Sale (Cash Register),Pin Pad,,SNS Team,
School Nutrition Services,Technical (Hardware),Point Of Sale (Cash Register),,,SNS Team,
School Nutrition Services,Technical (Hardware),,,,SNS Team,
School Nutrition Services,Technical (Other),Software Issue,General Computer Issue/Other,,SNS Team,
School Nutrition Services,Technical (Other),Software Issue,Microsoft Office Issues,,SNS Team,
School Nutrition Services,Technical (Other),Software Issue,SNS Intranet,,SNS Team,
School Nutrition Services,Technical (Other),Software Issue,TimeClock Plus,,SNS Team,
School Nutrition Services,Technical (Other),Software Issue,Websmart Issues,,SNS Team,
School Nutrition Services,Technical (Other),Software Issue,,,SNS Team,
School Nutrition Services,Technical (Other),User Account Issues,Account Creation (New Employees),,SNS Team,
School Nutrition Services,Technical (Other),User Account Issues,E-Mail Access,,SNS Team,
School Nutrition Services,Technical (Other),User Account Issues,Other Account Issues,,SNS Team,
School Nutrition Services,Technical (Other),User Account Issues,Password Resets,,SNS Team,
School Nutrition Services,Technical (Other),User Account Issues,,,SNS Team,
School Nutrition Services,Technical (Other),,,,SNS Team,
School Nutrition Services,Technical (Projects  and Custom Work),,,,SNS Team,
Security,Hacked user account,,,,InfoSec Team,
Security,Hacked/Compromised Services,,,,InfoSec Team,
Security,Request Lighspeed Web History Report,,,,InfoSec Team,
Security,SPAM/Phishing emails,,,,InfoSec Team,
Software and Services,Assistive Learning,,,,Assistive Technology Team,
Software and Services,Blogs.henrico,Elementary,,,Instructional Technology Leadership Team,
Software and Services,Blogs.henrico,High,,,Instructional Technology Leadership Team,
Software and Services,Blogs.henrico,Middle,,,Instructional Technology Leadership Team,
Software and Services,Brain Pop,,,,Instructional Technology Leadership Team,
Software and Services,Child Plus,,,,Assistive Technology Team,
Software and Services,Citrix,,,,SystemAdmin Team,
Software and Services,Clever,,,,Instructional Technology Leadership Team,
Software and Services,Client Anti-Virus Software,,,,InfoSec Team,
Software and Services,Desktop/Documents Sync,,,,ServiceDesk Team,
Software and Services,12 - Internal Technician Ticket,,,,,
Software and Services,Alexandria,,,,Specialist Team,Title 1 Library Resource
Software and Services,Discovery-United Streaming,,,,Instructional Technology Leadership Team,
Software and Services,Earobics,,,,Assistive Technology Team,
Software and Services,Edgenuity,,,,ServiceDesk Team,
Software and Services,email,Outlook issues,,,SystemAdmin Team,
Software and Services,email,User not sending/receiving emails,,,SystemAdmin Team,
Software and Services,ERO,,,,Instructional Technology Leadership Team,
Software and Services,Explore Learning,,,,Instructional Technology Leadership Team,
Software and Services,Filemaker Pro,,,,SystemAdmin Team,
Software and Services,Google Services,,,,AppDev Team,
Software and Services,HCPS HelpDesk (ChangeGear),,,,Support Services Team,
Software and Services,HCPS Website,,,,Cindy L. Brown,
Software and Services,iPad Software and Management Issues,,,,SystemAdmin Team,
Software and Services,iStation,,,,Assistive Technology Team,
Software and Services,Laptop,Needs Reimage,,,No Owner,
Software and Services,Laptop,Trust Relationship issue,,,Support Services Team,
Software and Services,LDAP,,,,AppDev Team,
Software and Services,Library Services,,,,Library Services Team,
Software and Services,Network Infrastructure and Servers,DNS Issues,,,SystemAdmin Team,
Software and Services,Network Infrastructure and Servers,SCCM Issues,Other Issues,,SystemAdmin Team,
Software and Services,Network Infrastructure and Servers,SCCM Issues,Performance Issues,,SystemAdmin Team,
Software and Services,Network Infrastructure and Servers,Servers,Builds,,SystemAdmin Team,
Software and Services,Network Infrastructure and Servers,Wi-Fi Issues,,,Netadmin Team,
Software and Services,Network Infrastructure and Servers,Wi-Fi Issues (outside HCPS network),,,Support Services Team,
Software and Services,Office 365 (not email),,,,SystemAdmin Team,
Software and Services,Online Fee System,,,,Budget Team,
Software and Services,PasswordManager,Password Manager Server Issues,,,SystemAdmin Team,
Software and Services,PowerSchool,Adding/Removing Board Subs,,,SIS Team,
Software and Services,PowerSchool,Adding/Removing Staff,,,SIS Team,
Software and Services,PowerSchool,Attendance,,,SIS Team,
Software and Services,PowerSchool,Course Recommendation/Requests,,,SIS Team,
Software and Services,PowerSchool,Courses,,,SIS Team,
Software and Services,PowerSchool,Discipline,,,SIS Team,
Software and Services,PowerSchool,Discipline Referrals,,,SIS Team,
Software and Services,PowerSchool,Enrolling Students,,,SIS Team,
Software and Services,PowerSchool,Gradebook,,,SIS Team,
Software and Services,PowerSchool,Parent/Student Portal,,,SIS Team,
Software and Services,PowerSchool,PowerSchool Software Issues,,,SIS Team,
Software and Services,PowerSchool,PowerTeacher Administrator,,,SIS Team,
Software and Services,PowerSchool,Report Cards,,,SIS Team,
Software and Services,PowerSchool,Schedules,,,SIS Team,
Software and Services,PowerSchool,Honor Role,,,SIS Team,
Software and Services,PowerSchool,Schoology/PowerSchool Gradebook Issues,,,Instructional Technology Leadership Team,
Software and Services,PowerSchool,Student Photos,,,SIS Team,
Software and Services,PowerSchool,Summer School,,,IDS Team,
Software and Services,PowerSchool,Test Scores in PowerSchool,,,SIS Team,
Software and Services,PowerSchool,Transcripts/Class Rank/Historical Grades,,,SIS Team,
Software and Services,Printing,Print Server Issues,,,SystemAdmin Team,
Software and Services,Promethean (Software Only),,,,Instructional Technology Leadership Team,
Software and Services,Quia,,,,Instructional Technology Leadership Team,
Software and Services,Reporting,Issues,,,ServiceDesk Team,
Software and Services,School Websites,,,,Cindy L. Brown,
Software and Services,SchoolMessenger,,,,IDS Team,
Software and Services,Schoology,Content,Courses,,Instructional Technology Leadership Team,
Software and Services,Schoology,Content,Groups,,Instructional Technology Leadership Team,
Software and Services,Schoology,Content,Resources,,Instructional Technology Leadership Team,
Software and Services,Schoology,Testing - Respondus,,,Instructional Technology Leadership Team,
Software and Services,Schoology,User Access,,,Instructional Technology Leadership Team,
Software and Services,SEAS,,,,Instructional Technology Leadership Team,
Software and Services,Smart Find,,,,DSS Finance Team,
Software and Services,Software Center,Add Approved Software by Course Number,,,SystemAdmin Team,
Software and Services,Software Center,Group Policy Changes,,,SystemAdmin Team,
Software and Services,Software Center,Issues,,,SystemAdmin Team,
Software and Services,Software Center,Permissions,,,SystemAdmin Team,
Software and Services,Software Center,Updates,,,SystemAdmin Team,
Software and Services,Software Image Issues,,,,SystemAdmin Team,
Software and Services,Software or Service Failure,,,,SystemAdmin Team,
Software and Services,SolarWinds,,,,ServiceDesk Team,
Software and Services,Specialty Center Online Application System,,,,IDS Team,
Software and Services,Study Island,,,,Instructional Technology Leadership Team,
Software and Services,Summer School,,,,IDS Team,
Software and Services,Teacher.henrico,,,,SystemAdmin Team,
Software and Services,Tempest,,,,ServiceDesk Team,Laptop Inventory Database
Software and Services,Testing,CTE Testing,,,,
Software and Services,Testing,HAT,,,ServiceDesk Team,
Software and Services,Testing,NWEA - MAPS Testmaker,,,SystemAdmin Team,
Software and Services,Testing,Other Online Testing,,,SystemAdmin Team,
Software and Services,Testing,Pearson GED,,,SystemAdmin Team,
Software and Services,Testing,PowerTest,,,Specialist Team,
Software and Services,Testing,SOL/TestNav,,,SystemAdmin Team,
Software and Services,The Locker,,,,IDS Team,
Software and Services,Think Through Math,,,,Instructional Technology Leadership Team,
Software and Services,Web Applications,,,,AppDev Team,
Software and Services,Web Development Team,,,,Cindy L. Brown,
Software and Services,ZippSlip,,,,IDS Team,
